social_network,Channel name,Mañana,Tarde,Noche,Lunes,Martes,Miércoles,Jueves,Viernes,Sábado,Domingo,Count_id,Dislike_count,Favorite_count,Like_count,View_count,Comment_count,Imagenes,Video,Text,query_date
YouTube,Javeriana TV,0.0,0.0,1.0,0.0,0.0,0.0,0.0,0.0,0.0,0.0,1,5.0,0.0,313.0,15195.0,715.0,1.0,1.0,1.0,2021-12-06 20:10:20
YouTube,Javeriana TV,0.0,0.0,1.0,0.0,0.0,0.0,0.0,0.0,0.0,0.0,1,7.0,0.0,113.0,28634.0,292.0,1.0,1.0,1.0,2021-12-06 20:10:28
YouTube,Javeriana TV,0.0,1.0,0.0,0.0,0.0,0.0,0.0,0.0,0.0,0.0,1,3.0,0.0,78.0,2021.0,12.0,1.0,1.0,1.0,2021-12-06 20:10:52
YouTube,Javeriana TV,0.0,0.0,1.0,0.0,0.0,0.0,0.0,0.0,0.0,0.0,1,5.0,0.0,286.0,21149.0,584.0,1.0,1.0,1.0,2021-12-06 20:10:23
YouTube,Javeriana TV,0.0,1.0,0.0,0.0,0.0,0.0,0.0,0.0,0.0,0.0,1,2.0,0.0,26.0,662.0,1.0,1.0,1.0,1.0,2021-12-06 20:10:30
YouTube,Javeriana TV,0.0,1.0,0.0,0.0,0.0,0.0,0.0,0.0,0.0,0.0,1,5.0,0.0,109.0,2938.0,17.0,1.0,1.0,1.0,2021-12-06 20:10:38
YouTube,Javeriana TV,0.0,0.0,1.0,0.0,0.0,0.0,0.0,0.0,0.0,0.0,1,7.0,0.0,157.0,4163.0,12.0,1.0,1.0,1.0,2021-12-06 20:10:41
YouTube,Javeriana TV,0.0,1.0,0.0,0.0,0.0,0.0,0.0,0.0,0.0,0.0,1,10.0,0.0,153.0,4192.0,5.0,1.0,1.0,1.0,2021-12-06 20:10:56
YouTube,Javeriana TV,0.0,0.0,1.0,0.0,0.0,0.0,0.0,0.0,0.0,0.0,1,5.0,0.0,178.0,27550.0,371.0,1.0,1.0,1.0,2021-12-06 20:10:19
YouTube,Javeriana TV,0.0,1.0,0.0,0.0,0.0,0.0,0.0,0.0,0.0,0.0,1,7.0,0.0,92.0,2854.0,20.0,1.0,1.0,1.0,2021-12-06 20:10:34
YouTube,Javeriana TV,0.0,1.0,1.0,0.0,0.0,0.0,0.0,0.0,0.0,0.0,1,10.0,0.0,263.0,7795.0,38.0,2.0,2.0,2.0,2021-12-06 20:11:02
YouTube,Javeriana TV,0.0,0.0,1.0,0.0,0.0,0.0,0.0,0.0,0.0,0.0,1,10.0,0.0,296.0,9786.0,19.0,1.0,1.0,1.0,2021-12-06 20:11:01
YouTube,Javeriana TV,0.0,1.0,0.0,0.0,0.0,0.0,0.0,0.0,0.0,0.0,1,5.0,0.0,224.0,36968.0,25.0,1.0,1.0,1.0,2021-12-06 20:11:04
YouTube,Javeriana TV,0.0,0.0,1.0,0.0,0.0,0.0,0.0,0.0,0.0,0.0,1,4.0,0.0,129.0,5031.0,12.0,1.0,1.0,1.0,2021-12-06 20:11:03
YouTube,Javeriana TV,0.0,0.0,1.0,0.0,0.0,0.0,0.0,0.0,0.0,0.0,1,11.0,0.0,269.0,6453.0,20.0,1.0,1.0,1.0,2021-12-06 20:11:06
YouTube,Javeriana TV,0.0,1.0,1.0,0.0,0.0,0.0,0.0,0.0,0.0,0.0,1,8.0,0.0,359.0,13920.0,52.0,2.0,2.0,2.0,2021-12-06 20:11:05
YouTube,Javeriana TV,0.0,1.0,0.0,0.0,0.0,0.0,0.0,0.0,0.0,0.0,1,7.0,0.0,174.0,7025.0,9.0,1.0,1.0,1.0,2021-12-06 20:11:00
YouTube,Javeriana TV,0.0,1.0,0.0,0.0,0.0,0.0,0.0,0.0,0.0,0.0,1,9.0,0.0,297.0,8142.0,56.0,1.0,1.0,1.0,2021-12-06 20:11:07
YouTube,Javeriana TV,0.0,1.0,0.0,0.0,0.0,0.0,0.0,0.0,0.0,0.0,1,35.0,0.0,354.0,9560.0,55.0,1.0,1.0,1.0,2021-12-06 20:11:09
